name: 'BidAmount management'
description: |-

  APIs for managing Bid Amount
endpoints:
  -
    httpMethods:
      - GET
    uri: api/amount
    metadata:
      title: 'Display a listing of the resource.'
      description: ''
      authenticated: false
    headers:
      Content-Type: application/json
      Accept: application/json
    urlParameters: []
    queryParameters: []
    bodyParameters: []
    responses:
      -
        status: 200
        content: '{"current_page":1,"data":[{"id":1,"price":100,"status":0,"bid_id":1,"created_at":"2021-11-25T20:55:54.000000Z","updated_at":"2021-11-25T21:19:35.000000Z"}],"first_page_url":"http:\/\/fulcrum.test\/api\/amount?page=1","from":1,"last_page":2,"last_page_url":"http:\/\/fulcrum.test\/api\/amount?page=2","links":[{"url":null,"label":"&laquo; Previous","active":false},{"url":"http:\/\/fulcrum.test\/api\/amount?page=1","label":"1","active":true},{"url":"http:\/\/fulcrum.test\/api\/amount?page=2","label":"2","active":false},{"url":"http:\/\/fulcrum.test\/api\/amount?page=2","label":"Next &raquo;","active":false}],"next_page_url":"http:\/\/fulcrum.test\/api\/amount?page=2","path":"http:\/\/fulcrum.test\/api\/amount","per_page":1,"prev_page_url":null,"to":1,"total":2}'
        headers:
          cache-control: 'no-cache, private'
          content-type: application/json
          x-ratelimit-limit: '60'
          x-ratelimit-remaining: '53'
          access-control-allow-origin: '*'
        description: null
    responseFields: []
  -
    httpMethods:
      - POST
    uri: api/amount
    metadata:
      title: 'Store a newly created resource in storage.'
      description: ''
      authenticated: false
    headers:
      Content-Type: application/json
      Accept: application/json
    urlParameters: []
    queryParameters: []
    bodyParameters:
      price:
        name: price
        description: 'The amount of the bid.'
        required: true
        example: '100'
        type: string
      status:
        name: status
        description: 'The status of the bid.'
        required: false
        example: 0
        type: integer
      bid_id:
        name: bid_id
        description: 'the id of the bid.'
        required: false
        example: 1
        type: integer
    responses: []
    responseFields: []
  -
    httpMethods:
      - GET
    uri: 'api/amount/{id}'
    metadata:
      title: 'Display the specified resource.'
      description: ''
      authenticated: false
    headers:
      Content-Type: application/json
      Accept: application/json
    urlParameters:
      id:
        name: id
        description: 'The ID of the amount.'
        required: true
        example: 16
        type: integer
    queryParameters: []
    bodyParameters: []
    responses:
      -
        status: 200
        content: '{"id":1,"price":100,"status":0,"bid_id":1,"created_at":"2021-11-25T20:55:54.000000Z","updated_at":"2021-11-25T21:19:35.000000Z"}'
        headers:
          cache-control: 'no-cache, private'
          content-type: application/json
          x-ratelimit-limit: '60'
          x-ratelimit-remaining: '52'
          access-control-allow-origin: '*'
        description: null
    responseFields: []
  -
    httpMethods:
      - PUT
      - PATCH
    uri: 'api/amount/{id}'
    metadata:
      title: 'Update the specified resource in storage.'
      description: ''
      authenticated: false
    headers:
      Content-Type: application/json
      Accept: application/json
    urlParameters:
      id:
        name: id
        description: 'The ID of the amount.'
        required: true
        example: 2
        type: integer
    queryParameters: []
    bodyParameters:
      price:
        name: price
        description: 'The amount of the bid.'
        required: true
        example: '100'
        type: string
      status:
        name: status
        description: 'The status of the bid.'
        required: false
        example: 0
        type: integer
      bid_id:
        name: bid_id
        description: 'the id of the bid.'
        required: false
        example: 1
        type: integer
    responses: []
    responseFields: []
  -
    httpMethods:
      - DELETE
    uri: 'api/amount/{id}'
    metadata:
      title: 'Remove the specified resource from storage.'
      description: ''
      authenticated: false
    headers:
      Content-Type: application/json
      Accept: application/json
    urlParameters:
      id:
        name: id
        description: 'The ID of the amount.'
        required: true
        example: 15
        type: integer
    queryParameters: []
    bodyParameters: []
    responses: []
    responseFields: []
