## Autogenerated by Scribe. DO NOT MODIFY.

name: 'User management'
description: |-

  APIs for managing Users
endpoints:
  -
    httpMethods:
      - GET
    uri: api/user
    metadata:
      title: 'Display a listing of the resource.'
      description: ''
      authenticated: false
    headers:
      Content-Type: application/json
      Accept: application/json
    urlParameters: []
    queryParameters: []
    bodyParameters: []
    responses:
      -
        status: 200
        content: '{"current_page":1,"data":[{"id":1,"name":"Dr. Seamus Ebert Sr.","email":"kelley59@example.org","email_verified_at":"2021-11-26 15:10:13","password":"$2y$10$92IXUNpkjO0rOQ5byMi.Ye4oKoEa3Ro9llC\/.og\/at2.uheWG\/igi","remember_token":null,"created_at":"2021-11-26T15:10:13.000000Z","updated_at":"2021-11-26T15:10:13.000000Z","bids":[{"id":2,"property_id":2,"status":0,"user_id":1,"created_at":"2021-11-26T15:10:13.000000Z","updated_at":"2021-11-26T15:10:13.000000Z","amount":{"id":43,"price":3833,"status":3,"bid_id":2,"created_at":"2021-11-26T15:10:13.000000Z","updated_at":"2021-11-26T15:10:13.000000Z"}},{"id":3,"property_id":1,"status":3,"user_id":1,"created_at":"2021-11-26T15:10:13.000000Z","updated_at":"2021-11-26T15:10:13.000000Z","amount":{"id":20,"price":838,"status":2,"bid_id":3,"created_at":"2021-11-26T15:10:13.000000Z","updated_at":"2021-11-26T15:10:13.000000Z"}},{"id":5,"property_id":1,"status":1,"user_id":1,"created_at":"2021-11-26T15:10:13.000000Z","updated_at":"2021-11-26T15:10:13.000000Z","amount":{"id":34,"price":842,"status":2,"bid_id":5,"created_at":"2021-11-26T15:10:13.000000Z","updated_at":"2021-11-26T15:10:13.000000Z"}},{"id":6,"property_id":2,"status":1,"user_id":1,"created_at":"2021-11-26T15:10:13.000000Z","updated_at":"2021-11-26T15:10:13.000000Z","amount":{"id":8,"price":2384,"status":3,"bid_id":6,"created_at":"2021-11-26T15:10:13.000000Z","updated_at":"2021-11-26T15:10:13.000000Z"}},{"id":7,"property_id":2,"status":1,"user_id":1,"created_at":"2021-11-26T15:10:13.000000Z","updated_at":"2021-11-26T15:10:13.000000Z","amount":{"id":45,"price":3376,"status":3,"bid_id":7,"created_at":"2021-11-26T15:10:13.000000Z","updated_at":"2021-11-26T15:10:13.000000Z"}},{"id":13,"property_id":1,"status":3,"user_id":1,"created_at":"2021-11-26T15:10:13.000000Z","updated_at":"2021-11-26T15:10:13.000000Z","amount":{"id":42,"price":786,"status":1,"bid_id":13,"created_at":"2021-11-26T15:10:13.000000Z","updated_at":"2021-11-26T15:10:13.000000Z"}},{"id":16,"property_id":1,"status":3,"user_id":1,"created_at":"2021-11-26T15:10:13.000000Z","updated_at":"2021-11-26T15:10:13.000000Z","amount":{"id":4,"price":1939,"status":2,"bid_id":16,"created_at":"2021-11-26T15:10:13.000000Z","updated_at":"2021-11-26T15:10:13.000000Z"}},{"id":17,"property_id":2,"status":2,"user_id":1,"created_at":"2021-11-26T15:10:13.000000Z","updated_at":"2021-11-26T15:10:13.000000Z","amount":{"id":14,"price":1396,"status":3,"bid_id":17,"created_at":"2021-11-26T15:10:13.000000Z","updated_at":"2021-11-26T15:10:13.000000Z"}},{"id":18,"property_id":2,"status":2,"user_id":1,"created_at":"2021-11-26T15:10:13.000000Z","updated_at":"2021-11-26T15:10:13.000000Z","amount":{"id":7,"price":1319,"status":0,"bid_id":18,"created_at":"2021-11-26T15:10:13.000000Z","updated_at":"2021-11-26T15:10:13.000000Z"}},{"id":20,"property_id":2,"status":0,"user_id":1,"created_at":"2021-11-26T15:10:13.000000Z","updated_at":"2021-11-26T15:10:13.000000Z","amount":{"id":40,"price":889,"status":2,"bid_id":20,"created_at":"2021-11-26T15:10:13.000000Z","updated_at":"2021-11-26T15:10:13.000000Z"}},{"id":25,"property_id":2,"status":0,"user_id":1,"created_at":"2021-11-26T15:10:13.000000Z","updated_at":"2021-11-26T15:10:13.000000Z","amount":{"id":13,"price":2623,"status":2,"bid_id":25,"created_at":"2021-11-26T15:10:13.000000Z","updated_at":"2021-11-26T15:10:13.000000Z"}},{"id":26,"property_id":1,"status":0,"user_id":1,"created_at":"2021-11-26T15:10:13.000000Z","updated_at":"2021-11-26T15:10:13.000000Z","amount":{"id":44,"price":2762,"status":0,"bid_id":26,"created_at":"2021-11-26T15:10:13.000000Z","updated_at":"2021-11-26T15:10:13.000000Z"}},{"id":28,"property_id":1,"status":0,"user_id":1,"created_at":"2021-11-26T15:10:13.000000Z","updated_at":"2021-11-26T15:10:13.000000Z","amount":{"id":10,"price":3659,"status":2,"bid_id":28,"created_at":"2021-11-26T15:10:13.000000Z","updated_at":"2021-11-26T15:10:13.000000Z"}},{"id":29,"property_id":1,"status":3,"user_id":1,"created_at":"2021-11-26T15:10:13.000000Z","updated_at":"2021-11-26T15:10:13.000000Z","amount":{"id":22,"price":1781,"status":0,"bid_id":29,"created_at":"2021-11-26T15:10:13.000000Z","updated_at":"2021-11-26T15:10:13.000000Z"}},{"id":30,"property_id":2,"status":3,"user_id":1,"created_at":"2021-11-26T15:10:13.000000Z","updated_at":"2021-11-26T15:10:13.000000Z","amount":{"id":27,"price":1009,"status":1,"bid_id":30,"created_at":"2021-11-26T15:10:13.000000Z","updated_at":"2021-11-26T15:10:13.000000Z"}},{"id":32,"property_id":1,"status":0,"user_id":1,"created_at":"2021-11-26T15:10:13.000000Z","updated_at":"2021-11-26T15:10:13.000000Z","amount":{"id":6,"price":820,"status":0,"bid_id":32,"created_at":"2021-11-26T15:10:13.000000Z","updated_at":"2021-11-26T15:10:13.000000Z"}},{"id":34,"property_id":1,"status":2,"user_id":1,"created_at":"2021-11-26T15:10:13.000000Z","updated_at":"2021-11-26T15:10:13.000000Z","amount":{"id":49,"price":1796,"status":1,"bid_id":34,"created_at":"2021-11-26T15:10:13.000000Z","updated_at":"2021-11-26T15:10:13.000000Z"}},{"id":36,"property_id":2,"status":2,"user_id":1,"created_at":"2021-11-26T15:10:13.000000Z","updated_at":"2021-11-26T15:10:13.000000Z","amount":{"id":3,"price":1554,"status":1,"bid_id":36,"created_at":"2021-11-26T15:10:13.000000Z","updated_at":"2021-11-26T15:10:13.000000Z"}},{"id":39,"property_id":1,"status":3,"user_id":1,"created_at":"2021-11-26T15:10:13.000000Z","updated_at":"2021-11-26T15:10:13.000000Z","amount":{"id":11,"price":1271,"status":0,"bid_id":39,"created_at":"2021-11-26T15:10:13.000000Z","updated_at":"2021-11-26T15:10:13.000000Z"}},{"id":43,"property_id":2,"status":2,"user_id":1,"created_at":"2021-11-26T15:10:13.000000Z","updated_at":"2021-11-26T15:10:13.000000Z","amount":{"id":16,"price":4087,"status":1,"bid_id":43,"created_at":"2021-11-26T15:10:13.000000Z","updated_at":"2021-11-26T15:10:13.000000Z"}},{"id":44,"property_id":2,"status":2,"user_id":1,"created_at":"2021-11-26T15:10:13.000000Z","updated_at":"2021-11-26T15:10:13.000000Z","amount":{"id":18,"price":3389,"status":1,"bid_id":44,"created_at":"2021-11-26T15:10:13.000000Z","updated_at":"2021-11-26T15:10:13.000000Z"}},{"id":46,"property_id":2,"status":0,"user_id":1,"created_at":"2021-11-26T15:10:13.000000Z","updated_at":"2021-11-26T15:10:13.000000Z","amount":{"id":17,"price":4896,"status":2,"bid_id":46,"created_at":"2021-11-26T15:10:13.000000Z","updated_at":"2021-11-26T15:10:13.000000Z"}},{"id":47,"property_id":2,"status":3,"user_id":1,"created_at":"2021-11-26T15:10:13.000000Z","updated_at":"2021-11-26T15:10:13.000000Z","amount":{"id":39,"price":185,"status":3,"bid_id":47,"created_at":"2021-11-26T15:10:13.000000Z","updated_at":"2021-11-26T15:10:13.000000Z"}},{"id":48,"property_id":2,"status":1,"user_id":1,"created_at":"2021-11-26T15:10:13.000000Z","updated_at":"2021-11-26T15:10:13.000000Z","amount":{"id":35,"price":338,"status":2,"bid_id":48,"created_at":"2021-11-26T15:10:13.000000Z","updated_at":"2021-11-26T15:10:13.000000Z"}},{"id":49,"property_id":1,"status":2,"user_id":1,"created_at":"2021-11-26T15:10:13.000000Z","updated_at":"2021-11-26T15:10:13.000000Z","amount":{"id":9,"price":1871,"status":2,"bid_id":49,"created_at":"2021-11-26T15:10:13.000000Z","updated_at":"2021-11-26T15:10:13.000000Z"}},{"id":50,"property_id":1,"status":2,"user_id":1,"created_at":"2021-11-26T15:10:13.000000Z","updated_at":"2021-11-26T15:10:13.000000Z","amount":{"id":41,"price":2218,"status":2,"bid_id":50,"created_at":"2021-11-26T15:10:13.000000Z","updated_at":"2021-11-26T15:10:13.000000Z"}}]}],"first_page_url":"http:\/\/fulcrum.test\/api\/user?page=1","from":1,"last_page":2,"last_page_url":"http:\/\/fulcrum.test\/api\/user?page=2","links":[{"url":null,"label":"&laquo; Previous","active":false},{"url":"http:\/\/fulcrum.test\/api\/user?page=1","label":"1","active":true},{"url":"http:\/\/fulcrum.test\/api\/user?page=2","label":"2","active":false},{"url":"http:\/\/fulcrum.test\/api\/user?page=2","label":"Next &raquo;","active":false}],"next_page_url":"http:\/\/fulcrum.test\/api\/user?page=2","path":"http:\/\/fulcrum.test\/api\/user","per_page":1,"prev_page_url":null,"to":1,"total":2}'
        headers:
          cache-control: 'no-cache, private'
          content-type: application/json
          access-control-allow-origin: '*'
        description: null
    responseFields: []
  -
    httpMethods:
      - POST
    uri: api/user
    metadata:
      title: 'Store a newly created resource in storage.'
      description: ''
      authenticated: false
    headers:
      Content-Type: application/json
      Accept: application/json
    urlParameters: []
    queryParameters: []
    bodyParameters: []
    responses: []
    responseFields: []
  -
    httpMethods:
      - GET
    uri: 'api/user/{id}'
    metadata:
      title: 'Display the specified resource.'
      description: ''
      authenticated: false
    headers:
      Content-Type: application/json
      Accept: application/json
    urlParameters:
      id:
        name: id
        description: 'The ID of the user.'
        required: true
        example: 16
        type: integer
    queryParameters: []
    bodyParameters: []
    responses:
      -
        status: 200
        content: '{"id":1,"name":"Dr. Seamus Ebert Sr.","email":"kelley59@example.org","email_verified_at":"2021-11-26 15:10:13","password":"$2y$10$92IXUNpkjO0rOQ5byMi.Ye4oKoEa3Ro9llC\/.og\/at2.uheWG\/igi","remember_token":null,"created_at":"2021-11-26T15:10:13.000000Z","updated_at":"2021-11-26T15:10:13.000000Z","bids":[{"id":2,"property_id":2,"status":0,"user_id":1,"created_at":"2021-11-26T15:10:13.000000Z","updated_at":"2021-11-26T15:10:13.000000Z","amount":{"id":43,"price":3833,"status":3,"bid_id":2,"created_at":"2021-11-26T15:10:13.000000Z","updated_at":"2021-11-26T15:10:13.000000Z"}},{"id":3,"property_id":1,"status":3,"user_id":1,"created_at":"2021-11-26T15:10:13.000000Z","updated_at":"2021-11-26T15:10:13.000000Z","amount":{"id":20,"price":838,"status":2,"bid_id":3,"created_at":"2021-11-26T15:10:13.000000Z","updated_at":"2021-11-26T15:10:13.000000Z"}},{"id":5,"property_id":1,"status":1,"user_id":1,"created_at":"2021-11-26T15:10:13.000000Z","updated_at":"2021-11-26T15:10:13.000000Z","amount":{"id":34,"price":842,"status":2,"bid_id":5,"created_at":"2021-11-26T15:10:13.000000Z","updated_at":"2021-11-26T15:10:13.000000Z"}},{"id":6,"property_id":2,"status":1,"user_id":1,"created_at":"2021-11-26T15:10:13.000000Z","updated_at":"2021-11-26T15:10:13.000000Z","amount":{"id":8,"price":2384,"status":3,"bid_id":6,"created_at":"2021-11-26T15:10:13.000000Z","updated_at":"2021-11-26T15:10:13.000000Z"}},{"id":7,"property_id":2,"status":1,"user_id":1,"created_at":"2021-11-26T15:10:13.000000Z","updated_at":"2021-11-26T15:10:13.000000Z","amount":{"id":45,"price":3376,"status":3,"bid_id":7,"created_at":"2021-11-26T15:10:13.000000Z","updated_at":"2021-11-26T15:10:13.000000Z"}},{"id":13,"property_id":1,"status":3,"user_id":1,"created_at":"2021-11-26T15:10:13.000000Z","updated_at":"2021-11-26T15:10:13.000000Z","amount":{"id":42,"price":786,"status":1,"bid_id":13,"created_at":"2021-11-26T15:10:13.000000Z","updated_at":"2021-11-26T15:10:13.000000Z"}},{"id":16,"property_id":1,"status":3,"user_id":1,"created_at":"2021-11-26T15:10:13.000000Z","updated_at":"2021-11-26T15:10:13.000000Z","amount":{"id":4,"price":1939,"status":2,"bid_id":16,"created_at":"2021-11-26T15:10:13.000000Z","updated_at":"2021-11-26T15:10:13.000000Z"}},{"id":17,"property_id":2,"status":2,"user_id":1,"created_at":"2021-11-26T15:10:13.000000Z","updated_at":"2021-11-26T15:10:13.000000Z","amount":{"id":14,"price":1396,"status":3,"bid_id":17,"created_at":"2021-11-26T15:10:13.000000Z","updated_at":"2021-11-26T15:10:13.000000Z"}},{"id":18,"property_id":2,"status":2,"user_id":1,"created_at":"2021-11-26T15:10:13.000000Z","updated_at":"2021-11-26T15:10:13.000000Z","amount":{"id":7,"price":1319,"status":0,"bid_id":18,"created_at":"2021-11-26T15:10:13.000000Z","updated_at":"2021-11-26T15:10:13.000000Z"}},{"id":20,"property_id":2,"status":0,"user_id":1,"created_at":"2021-11-26T15:10:13.000000Z","updated_at":"2021-11-26T15:10:13.000000Z","amount":{"id":40,"price":889,"status":2,"bid_id":20,"created_at":"2021-11-26T15:10:13.000000Z","updated_at":"2021-11-26T15:10:13.000000Z"}},{"id":25,"property_id":2,"status":0,"user_id":1,"created_at":"2021-11-26T15:10:13.000000Z","updated_at":"2021-11-26T15:10:13.000000Z","amount":{"id":13,"price":2623,"status":2,"bid_id":25,"created_at":"2021-11-26T15:10:13.000000Z","updated_at":"2021-11-26T15:10:13.000000Z"}},{"id":26,"property_id":1,"status":0,"user_id":1,"created_at":"2021-11-26T15:10:13.000000Z","updated_at":"2021-11-26T15:10:13.000000Z","amount":{"id":44,"price":2762,"status":0,"bid_id":26,"created_at":"2021-11-26T15:10:13.000000Z","updated_at":"2021-11-26T15:10:13.000000Z"}},{"id":28,"property_id":1,"status":0,"user_id":1,"created_at":"2021-11-26T15:10:13.000000Z","updated_at":"2021-11-26T15:10:13.000000Z","amount":{"id":10,"price":3659,"status":2,"bid_id":28,"created_at":"2021-11-26T15:10:13.000000Z","updated_at":"2021-11-26T15:10:13.000000Z"}},{"id":29,"property_id":1,"status":3,"user_id":1,"created_at":"2021-11-26T15:10:13.000000Z","updated_at":"2021-11-26T15:10:13.000000Z","amount":{"id":22,"price":1781,"status":0,"bid_id":29,"created_at":"2021-11-26T15:10:13.000000Z","updated_at":"2021-11-26T15:10:13.000000Z"}},{"id":30,"property_id":2,"status":3,"user_id":1,"created_at":"2021-11-26T15:10:13.000000Z","updated_at":"2021-11-26T15:10:13.000000Z","amount":{"id":27,"price":1009,"status":1,"bid_id":30,"created_at":"2021-11-26T15:10:13.000000Z","updated_at":"2021-11-26T15:10:13.000000Z"}},{"id":32,"property_id":1,"status":0,"user_id":1,"created_at":"2021-11-26T15:10:13.000000Z","updated_at":"2021-11-26T15:10:13.000000Z","amount":{"id":6,"price":820,"status":0,"bid_id":32,"created_at":"2021-11-26T15:10:13.000000Z","updated_at":"2021-11-26T15:10:13.000000Z"}},{"id":34,"property_id":1,"status":2,"user_id":1,"created_at":"2021-11-26T15:10:13.000000Z","updated_at":"2021-11-26T15:10:13.000000Z","amount":{"id":49,"price":1796,"status":1,"bid_id":34,"created_at":"2021-11-26T15:10:13.000000Z","updated_at":"2021-11-26T15:10:13.000000Z"}},{"id":36,"property_id":2,"status":2,"user_id":1,"created_at":"2021-11-26T15:10:13.000000Z","updated_at":"2021-11-26T15:10:13.000000Z","amount":{"id":3,"price":1554,"status":1,"bid_id":36,"created_at":"2021-11-26T15:10:13.000000Z","updated_at":"2021-11-26T15:10:13.000000Z"}},{"id":39,"property_id":1,"status":3,"user_id":1,"created_at":"2021-11-26T15:10:13.000000Z","updated_at":"2021-11-26T15:10:13.000000Z","amount":{"id":11,"price":1271,"status":0,"bid_id":39,"created_at":"2021-11-26T15:10:13.000000Z","updated_at":"2021-11-26T15:10:13.000000Z"}},{"id":43,"property_id":2,"status":2,"user_id":1,"created_at":"2021-11-26T15:10:13.000000Z","updated_at":"2021-11-26T15:10:13.000000Z","amount":{"id":16,"price":4087,"status":1,"bid_id":43,"created_at":"2021-11-26T15:10:13.000000Z","updated_at":"2021-11-26T15:10:13.000000Z"}},{"id":44,"property_id":2,"status":2,"user_id":1,"created_at":"2021-11-26T15:10:13.000000Z","updated_at":"2021-11-26T15:10:13.000000Z","amount":{"id":18,"price":3389,"status":1,"bid_id":44,"created_at":"2021-11-26T15:10:13.000000Z","updated_at":"2021-11-26T15:10:13.000000Z"}},{"id":46,"property_id":2,"status":0,"user_id":1,"created_at":"2021-11-26T15:10:13.000000Z","updated_at":"2021-11-26T15:10:13.000000Z","amount":{"id":17,"price":4896,"status":2,"bid_id":46,"created_at":"2021-11-26T15:10:13.000000Z","updated_at":"2021-11-26T15:10:13.000000Z"}},{"id":47,"property_id":2,"status":3,"user_id":1,"created_at":"2021-11-26T15:10:13.000000Z","updated_at":"2021-11-26T15:10:13.000000Z","amount":{"id":39,"price":185,"status":3,"bid_id":47,"created_at":"2021-11-26T15:10:13.000000Z","updated_at":"2021-11-26T15:10:13.000000Z"}},{"id":48,"property_id":2,"status":1,"user_id":1,"created_at":"2021-11-26T15:10:13.000000Z","updated_at":"2021-11-26T15:10:13.000000Z","amount":{"id":35,"price":338,"status":2,"bid_id":48,"created_at":"2021-11-26T15:10:13.000000Z","updated_at":"2021-11-26T15:10:13.000000Z"}},{"id":49,"property_id":1,"status":2,"user_id":1,"created_at":"2021-11-26T15:10:13.000000Z","updated_at":"2021-11-26T15:10:13.000000Z","amount":{"id":9,"price":1871,"status":2,"bid_id":49,"created_at":"2021-11-26T15:10:13.000000Z","updated_at":"2021-11-26T15:10:13.000000Z"}},{"id":50,"property_id":1,"status":2,"user_id":1,"created_at":"2021-11-26T15:10:13.000000Z","updated_at":"2021-11-26T15:10:13.000000Z","amount":{"id":41,"price":2218,"status":2,"bid_id":50,"created_at":"2021-11-26T15:10:13.000000Z","updated_at":"2021-11-26T15:10:13.000000Z"}}]}'
        headers:
          cache-control: 'no-cache, private'
          content-type: application/json
          access-control-allow-origin: '*'
        description: null
    responseFields: []
  -
    httpMethods:
      - PUT
      - PATCH
    uri: 'api/user/{id}'
    metadata:
      title: 'Update the specified resource in storage.'
      description: ''
      authenticated: false
    headers:
      Content-Type: application/json
      Accept: application/json
    urlParameters:
      id:
        name: id
        description: 'The ID of the user.'
        required: true
        example: 12
        type: integer
    queryParameters: []
    bodyParameters: []
    responses: []
    responseFields: []
  -
    httpMethods:
      - DELETE
    uri: 'api/user/{id}'
    metadata:
      title: 'Remove the specified resource from storage.'
      description: ''
      authenticated: false
    headers:
      Content-Type: application/json
      Accept: application/json
    urlParameters:
      id:
        name: id
        description: 'The ID of the user.'
        required: true
        example: 2
        type: integer
    queryParameters: []
    bodyParameters: []
    responses: []
    responseFields: []
